UART.sim/sim_1/behav/xsim/uart_tb.vcd
$date
   Tue Oct 31 11:35:29 2023
$end

$version
  2023.2
  $dumpfile ("uart_tb.vcd") 
$end

$timescale
  1ps
$end

$scope module uart_tb $end
$var reg 1 ! clk $end
$var reg 1 " reset $end
$var reg 1 # rd_uart $end
$var reg 1 $ wr_uart $end
$var reg 1 % rx $end
$var reg 8 & w_data [7:0] $end
$var wire 1 ' tx_full $end
$var wire 1 ( rx_empty $end
$var wire 1 ) tx $end
$var wire 8 * r_data [7:0] $end
$scope module dut $end
$var wire 1 + clk $end
$var wire 1 , reset $end
$var wire 1 - rd_uart $end
$var wire 1 . wr_uart $end
$var wire 1 / rx $end
$var wire 8 0 w_data [7:0] $end
$var wire 1 ' tx_full $end
$var wire 1 ( rx_empty $end
$var wire 1 ) tx $end
$var wire 8 * r_data [7:0] $end
$var wire 1 1 tick $end
$var wire 1 2 rx_done_tick $end
$var wire 1 3 tx_done_tick $end
$var wire 1 4 tx_empty $end
$var wire 1 5 tx_fifo_not_empty $end
$var wire 8 6 tx_fifo_out [7:0] $end
$var wire 8 7 rx_data_out [7:0] $end
$scope module baud_gen_unit $end
$var wire 1 + clk $end
$var wire 1 , reset $end
$var wire 1 1 baud_tick $end
$var wire 26 8 baud_rate [25:0] $end
$var reg 26 9 counter_reg [25:0] $end
$var wire 26 : counter_next [25:0] $end
$upscope $end
$scope module uart_rx_unit $end
$var wire 1 1 s_tick $end
$var wire 1 + clk $end
$var wire 1 , reset $end
$var wire 1 / rx $end
$var reg 1 ; rx_done_tick $end
$var wire 8 7 dout [7:0] $end
$var reg 2 < state_reg [1:0] $end
$var reg 2 = state_next [1:0] $end
$var reg 4 > s_reg [3:0] $end
$var reg 4 ? s_next [3:0] $end
$var reg 3 @ n_reg [2:0] $end
$var reg 3 A n_next [2:0] $end
$var reg 8 B b_reg [7:0] $end
$var reg 8 C b_next [7:0] $end
$upscope $end
$scope module uart_tx_unit $end
$var wire 1 1 s_tick $end
$var wire 1 + clk $end
$var wire 1 , reset $end
$var wire 1 5 tx_start $end
$var wire 8 6 din [7:0] $end
$var reg 1 D tx_done_tick $end
$var wire 1 ) tx $end
$var reg 2 E state_reg [1:0] $end
$var reg 2 F state_next [1:0] $end
$var reg 4 G s_reg [3:0] $end
$var reg 4 H s_next [3:0] $end
$var reg 3 I n_reg [2:0] $end
$var reg 3 J n_next [2:0] $end
$var reg 8 K b_reg [7:0] $end
$var reg 8 L b_next [7:0] $end
$var reg 1 M tx_reg $end
$var reg 1 N tx_next $end
$upscope $end
$scope module fifo_rx_unit $end
$var wire 1 + clk $end
$var wire 1 , reset $end
$var wire 8 7 w_data [7:0] $end
$var wire 1 2 wr $end
$var wire 1 - rd $end
$var wire 8 * r_data [7:0] $end
$var wire 1 O full $end
$var wire 1 ( empty $end
$var reg 4 P w_ptr_reg [3:0] $end
$var reg 4 Q w_ptr_next [3:0] $end
$var reg 4 R w_ptr_succ [3:0] $end
$var reg 4 S r_ptr_reg [3:0] $end
$var reg 4 T r_ptr_next [3:0] $end
$var reg 4 U r_ptr_succ [3:0] $end
$var reg 1 V full_reg $end
$var reg 1 W full_next $end
$var reg 1 X empty_reg $end
$var reg 1 Y empty_next $end
$var wire 1 Z wr_en $end
$upscope $end
$scope module fifo_tx_unit $end
$var wire 1 + clk $end
$var wire 1 , reset $end
$var wire 8 0 w_data [7:0] $end
$var wire 1 . wr $end
$var wire 1 3 rd $end
$var wire 8 6 r_data [7:0] $end
$var wire 1 ' full $end
$var wire 1 4 empty $end
$var reg 4 [ w_ptr_reg [3:0] $end
$var reg 4 \ w_ptr_next [3:0] $end
$var reg 4 ] w_ptr_succ [3:0] $end
$var reg 4 ^ r_ptr_reg [3:0] $end
$var reg 4 _ r_ptr_next [3:0] $end
$var reg 4 ` r_ptr_succ [3:0] $end
$var reg 1 a full_reg $end
$var reg 1 b full_next $end
$var reg 1 c empty_reg $end
$var reg 1 d empty_next $end
$var wire 1 e wr_en $end
$upscope $end
$upscope $end
$upscope $end
$enddefinitions $end

#10000
$dumpvars
0!
0"
0#
1$
1%
b1100011 &
0'
1(
1)
bx *
0+
0,
0-
1.
1/
b1100011 0
01
02
03
14
05
bx 6
b0 7
b0 8
b0 9
b1 :
0;
b0 <
b0 =
b0 >
b0 ?
b0 @
b0 A
b0 B
b0 C
0D
b0 E
b0 F
b0 G
b0 H
b0 I
b0 J
b0 K
b0 L
1M
1N
0O
b0 P
b0 Q
b1 R
b0 S
b0 T
b1 U
0V
0W
1X
1Y
0Z
b0 [
b1 \
b1 ]
b0 ^
b0 _
b1 `
0a
0b
1c
0d
1e
$end

#15000
1!
1+
04
15
b1100011 6
b1 8
b1 9
b10 :
b1 F
b1100011 L
b1 [
b10 \
b10 ]
0c

#20000
0!
1#
b10010 &
0+
1-
b10010 0

#25000
1!
1+
b10 8
b10 9
b11 :
b1 E
b1100011 K
0N
b10 [
b11 \
b11 ]

#30000
0!
0%
b111101 &
0+
0/
b111101 0
b1 =

#35000
1!
0)
1+
b11 8
b11 9
b100 :
b1 <
0M
b11 [
b100 \
b100 ]

#40000
0!
0$
1%
b11000110 &
0+
0.
1/
b11000110 0
b11 \
0e

#45000
1!
1+
b100 8
b100 9
b101 :

#50000
0!
b1110111 &
0+
b1110111 0

#55000
1!
1+
b101 8
b101 9
b110 :

#60000
0!
0#
1$
0%
b11001110 &
0+
0-
1.
0/
b11001110 0
b100 \
1e

#65000
1!
1+
b110 8
b110 9
b111 :
b100 [
b101 \
b101 ]

#70000
0!
b10111101 &
0+
b10111101 0

#75000
1!
1+
11
b111 8
b111 9
b0 :
b1 ?
b1 H
b101 [
b110 \
b110 ]

#80000
0!
1#
1%
b1010 &
0+
1-
1/
b1010 0
b1 ?

#85000
1!
1+
01
b0 8
b0 9
b1 :
b1 >
b1 G
b110 [
b111 \
b111 ]

#90000
0!
0#
0$
0%
b10011101 &
0+
0-
0.
0/
b10011101 0
b110 \
0e

#95000
1!
1+
b1 8
b1 9
b10 :

#100000
0!
1$
1%
b1010011 &
0+
1.
1/
b1010011 0
b111 \
1e

#105000
1!
1+
b10 8
b10 9
b11 :
b111 [
b1000 \
b1000 ]

#110000
0!
1#
0%
b10101110 &
0+
1-
0/
b10101110 0

#115000
1!
1+
b11 8
b11 9
b100 :
b1000 [
b1001 \
b1001 ]

#120000
0!
1%
b1010 &
0+
1/
b1010 0

#125000
1!
1+
b100 8
b100 9
b101 :
b1001 [
b1010 \
b1010 ]

#130000
0!
0#
0$
0%
b10001010 &
0+
0-
0.
0/
b10001010 0
b1001 \
0e

#135000
1!
1+
b101 8
b101 9
b110 :

#140000
0!
1#
b10001001 &
0+
1-
b10001001 0

#145000
1!
1+
b110 8
b110 9
b111 :

#150000
0!
b10101110 &
0+
b10101110 0

#155000
1!
1+
11
b111 8
b111 9
b0 :
b10 ?
b10 H

#160000
0!
0#
1%
b1110001 &
0+
0-
1/
b1110001 0
b10 ?

#165000
1!
1+
01
b0 8
b0 9
b1 :
b10 >
b10 G

#170000
0!
1#
1$
b111010 &
0+
1-
1.
b111010 0
b1010 \
1e

#175000
1!
1+
b1 8
b1 9
b10 :
b1010 [
b1011 \
b1011 ]

#180000
0!
0#
b11011001 &
0+
0-
b11011001 0

#185000
1!
1+
b10 8
b10 9
b11 :
b1011 [
b1100 \
b1100 ]

#190000
0!
0$
b10001111 &
0+
0.
b10001111 0
b1011 \
0e

#195000
1!
1+
b11 8
b11 9
b100 :

#200000
0!
1$
b1011100 &
0+
1.
b1011100 0
b1100 \
1e

#205000
1!
1+
b100 8
b100 9
b101 :
b1100 [
b1101 \
b1101 ]

#210000
0!
1#
b11010000 &
0+
1-
b11010000 0

#215000
1!
1+
b101 8
b101 9
b110 :
b1101 [
b1110 \
b1110 ]

#220000
0!
0%
b1100 &
0+
0/
b1100 0

#225000
1!
1+
b110 8
b110 9
b111 :
b1110 [
b1111 \
b1111 ]

#230000
0!
0#
0$
1%
b111101 &
0+
0-
0.
1/
b111101 0
b1110 \
0e

#235000
1!
1+
11
b111 8
b111 9
b0 :
b11 ?
b11 H

#240000
0!
b111001 &
0+
b111001 0

#245000
1!
1+
01
b0 8
b0 9
b1 :
b11 >
b11 G

#250000
0!
1#
1$
b1111000 &
0+
1-
1.
b1111000 0
b1111 \
1e

#255000
1!
1+
b1 8
b1 9
b10 :
b1111 [
b0 \
b0 ]
1b

#260000
0!
b101010 &
0+
b101010 0

#265000
1!
1'
1+
b10 8
b10 9
b11 :
b0 [
b1 ]
1a
0e

#270000
0!
0#
0$
0%
b10011100 &
0+
0-
0.
0/
b10011100 0

#275000
1!
1+
b11 8
b11 9
b100 :

#280000
0!
1%
b10100011 &
0+
1/
b10100011 0

#285000
1!
1+
b100 8
b100 9
b101 :

#290000
0!
1#
1$
b1000100 &
0+
1-
1.
b1000100 0

#295000
1!
1+
b101 8
b101 9
b110 :

#300000
0!
0%
b1011010 &
0+
0/
b1011010 0

#305000
1!
1+
b110 8
b110 9
b111 :

#310000
0!
b1100101 &
0+
b1100101 0

#315000
1!
1+
11
b111 8
b111 9
b0 :
b100 ?
b100 H

#320000
0!
1%
b1000100 &
0+
1/
b1000100 0
b100 ?

#325000
1!
1+
01
b0 8
b0 9
b1 :
b100 >
b100 G

#330000
0!
0#
0$
b1110 &
0+
0-
0.
b1110 0

#335000
1!
1+
b1 8
b1 9
b10 :

#340000
0!
b11000011 &
0+
b11000011 0

#345000
1!
1+
b10 8
b10 9
b11 :

#350000
0!
b1010 &
0+
b1010 0

#355000
1!
1+
b11 8
b11 9
b100 :

#360000
0!
b10111000 &
0+
b10111000 0

#365000
1!
1+
b100 8
b100 9
b101 :

#370000
0!
1$
0%
b1011001 &
0+
1.
0/
b1011001 0

#375000
1!
1+
b101 8
b101 9
b110 :

#380000
0!
1#
1%
b1101101 &
0+
1-
1/
b1101101 0

#385000
1!
1+
b110 8
b110 9
b111 :

#390000
0!
0#
0$
0%
b10010101 &
0+
0-
0.
0/
b10010101 0

#395000
1!
1+
11
b111 8
b111 9
b0 :
b101 ?
b101 H

#400000
0!
1%
b1101001 &
0+
1/
b1101001 0
b101 ?

#405000
1!
1+
01
b0 8
b0 9
b1 :
b101 >
b101 G

#410000
0!
0%
b101101 &
0+
0/
b101101 0

#415000
1!
1+
b1 8
b1 9
b10 :

#420000
0!
1#
b11100 &
0+
1-
b11100 0

#425000
1!
1+
b10 8
b10 9
b11 :

#430000
0!
1$
b10000110 &
0+
1.
b10000110 0

#435000
1!
1+
b11 8
b11 9
b100 :

#440000
0!
0#
b1110000 &
0+
0-
b1110000 0

#445000
1!
1+
b100 8
b100 9
b101 :

#450000
0!
1#
0$
b11111010 &
0+
1-
0.
b11111010 0

#455000
1!
1+
b101 8
b101 9
b110 :

#460000
0!
1%
b110111 &
0+
1/
b110111 0

#465000
1!
1+
b110 8
b110 9
b111 :

#470000
0!
0#
0%
b10110110 &
0+
0-
0/
b10110110 0

#475000
1!
1+
11
b111 8
b111 9
b0 :
b110 ?
b110 H

#480000
0!
1#
b1111000 &
0+
1-
b1111000 0

#485000
1!
1+
01
b0 8
b0 9
b1 :
b110 >
b110 G

#490000
0!
0#
1$
1%
b1111001 &
0+
0-
1.
1/
b1111001 0

#495000
1!
1+
b1 8
b1 9
b10 :

#500000
0!
b10100001 &
0+
b10100001 0

#505000
1!
1+
b10 8
b10 9
b11 :

#510000
0!
0$
b110101 &
0+
0.
b110101 0

#515000
1!
1+
b11 8
b11 9
b100 :

#520000
0!
1#
1$
b10011000 &
0+
1-
1.
b10011000 0

#525000
1!
1+
b100 8
b100 9
b101 :

#530000
0!
0%
b10001010 &
0+
0/
b10001010 0

#535000
1!
1+
b101 8
b101 9
b110 :

#540000
0!
0#
0$
1%
b10100001 &
0+
0-
0.
1/
b10100001 0

#545000
1!
1+
b110 8
b110 9
b111 :

#550000
0!
b101010 &
0+
b101010 0

#555000
1!
1+
11
b111 8
b111 9
b0 :
b111 ?
b111 H

#560000
0!
1$
0%
b111000 &
0+
1.
0/
b111000 0
b111 ?

#565000
1!
1+
01
b0 8
b0 9
b1 :
b111 >
b111 G

#570000
0!
1#
0$
b10011 &
0+
1-
0.
b10011 0

#575000
1!
1+
b1 8
b1 9
b10 :

#580000
0!
1$
b10111010 &
0+
1.
b10111010 0

#585000
1!
1+
b10 8
b10 9
b11 :

#590000
0!
0#
b10110100 &
0+
0-
b10110100 0

#595000
1!
1+
b11 8
b11 9
b100 :

#600000
0!
1#
0$
b11110010 &
0+
1-
0.
b11110010 0

#605000
1!
1+
b100 8
b100 9
b101 :

#610000
0!
0#
1$
b11100100 &
0+
0-
1.
b11100100 0

#615000
1!
1+
b101 8
b101 9
b110 :

#620000
0!
1%
b10001110 &
0+
1/
b10001110 0

#625000
1!
1+
b110 8
b110 9
b111 :

#630000
0!
1#
b11001001 &
0+
1-
b11001001 0

#635000
1!
1+
11
b111 8
b111 9
b0 :
b10 =
b0 ?
b1000 H

#640000
0!
0#
b1101011 &
0+
0-
b1101011 0

#645000
1!
1+
01
b0 8
b0 9
b1 :
b10 <
b0 >
b1000 G

#650000
0!
0$
b10010010 &
0+
0.
b10010010 0

#655000
1!
1+
b1 8
b1 9
b10 :

#660000
0!
1$
b11000010 &
0+
1.
b11000010 0

#665000
1!
1+
b10 8
b10 9
b11 :

#670000
0!
0%
b11000 &
0+
0/
b11000 0

#675000
1!
1+
b11 8
b11 9
b100 :

#680000
0!
1#
0$
1%
b111011 &
0+
1-
0.
1/
b111011 0

#685000
1!
1+
b100 8
b100 9
b101 :

#690000
0!
0#
1$
0%
b1011011 &
0+
0-
1.
0/
b1011011 0

#695000
1!
1+
b101 8
b101 9
b110 :

#700000
0!
0$
1%
b11011000 &
0+
0.
1/
b11011000 0

#705000
1!
1+
b110 8
b110 9
b111 :

#710000
0!
b11100101 &
0+
b11100101 0

#715000
1!
1+
11
b111 8
b111 9
b0 :
b1 ?
b1001 H

#720000
0!
1#
1$
b11001000 &
0+
1-
1.
b11001000 0

#725000
1!
1+
01
b0 8
b0 9
b1 :
b1 >
b1001 G

#730000
0!
b100 &
0+
b100 0

#735000
1!
1+
b1 8
b1 9
b10 :

#740000
0!
0#
0$
0%
b10010 &
0+
0-
0.
0/
b10010 0

#745000
1!
1+
b10 8
b10 9
b11 :

#750000
0!
1$
1%
b11101101 &
0+
1.
1/
b11101101 0

#755000
1!
1+
b11 8
b11 9
b100 :

#760000
0!
1#
b100111 &
0+
1-
b100111 0

#765000
1!
1+
b100 8
b100 9
b101 :

#770000
0!
0#
b10111001 &
0+
0-
b10111001 0

#775000
1!
1+
b101 8
b101 9
b110 :

#780000
0!
1#
b1010001 &
0+
1-
b1010001 0

#785000
1!
1+
b110 8
b110 9
b111 :

#790000
0!
0$
0%
b1000101 &
0+
0.
0/
b1000101 0

#795000
1!
1+
11
b111 8
b111 9
b0 :
b10 ?
b1010 H

#800000
0!
b11111110 &
0+
b11111110 0

#805000
1!
1+
01
b0 8
b0 9
b1 :
b10 >
b1010 G

#810000
0!
0#
1$
b11110000 &
0+
0-
1.
b11110000 0

#815000
1!
1+
b1 8
b1 9
b10 :

#820000
0!
0$
b11110110 &
0+
0.
b11110110 0

#825000
1!
1+
b10 8
b10 9
b11 :

#830000
0!
1#
b111001 &
0+
1-
b111001 0

#835000
1!
1+
b11 8
b11 9
b100 :

#840000
0!
0#
b1100010 &
0+
0-
b1100010 0

#845000
1!
1+
b100 8
b100 9
b101 :

#850000
0!
1#
1$
1%
b1000011 &
0+
1-
1.
1/
b1000011 0

#855000
1!
1+
b101 8
b101 9
b110 :

#860000
0!
0$
b11000001 &
0+
0.
b11000001 0

#865000
1!
1+
b110 8
b110 9
b111 :

#870000
0!
b101100 &
0+
b101100 0

#875000
1!
1+
11
b111 8
b111 9
b0 :
b11 ?
b1011 H

#880000
0!
0#
1$
b10110110 &
0+
0-
1.
b10110110 0

#885000
1!
1+
01
b0 8
b0 9
b1 :
b11 >
b1011 G

#890000
0!
1#
0$
0%
b1010101 &
0+
1-
0.
0/
b1010101 0

#895000
1!
1+
b1 8
b1 9
b10 :

#900000
0!
0#
b10110100 &
0+
0-
b10110100 0

#905000
1!
1+
b10 8
b10 9
b11 :

#910000
0!
1#
1$
1%
b1111001 &
0+
1-
1.
1/
b1111001 0

#915000
1!
1+
b11 8
b11 9
b100 :

#920000
0!
0#
b10001111 &
0+
0-
b10001111 0

#925000
1!
1+
b100 8
b100 9
b101 :

#930000
0!
1#
b10110001 &
0+
1-
b10110001 0

#935000
1!
1+
b101 8
b101 9
b110 :

#940000
0!
0#
0%
b11101101 &
0+
0-
0/
b11101101 0

#945000
1!
1+
b110 8
b110 9
b111 :

#950000
0!
0$
1%
b1010010 &
0+
0.
1/
b1010010 0

#955000
1!
1+
11
b111 8
b111 9
b0 :
b100 ?
b1100 H

#960000
0!
0%
b10010000 &
0+
0/
b10010000 0
b100 ?

#965000
1!
1+
01
b0 8
b0 9
b1 :
b100 >
b1100 G

#970000
0!
1#
b10101010 &
0+
1-
b10101010 0

#975000
1!
1+
b1 8
b1 9
b10 :

#980000
0!
0#
b10001011 &
0+
0-
b10001011 0

#985000
1!
1+
b10 8
b10 9
b11 :

#990000
0!
1$
b10100010 &
0+
1.
b10100010 0

#995000
1!
1+
b11 8
b11 9
b100 :

#1000000
0!
1#
0$
1%
b1001011 &
0+
1-
0.
1/
b1001011 0
